Australian Demographic Study
…
Since we can sum up value of 16 years in 15 cols we ditch year 2031.

capital_total_pop <- subset(capital_total_pop, select = -`2031`)

Now that we have the required data, we again pivot longer so that its easier to visualise.

(tidy_df <- capital_total_pop %>%
pivot_longer(-1, names_to = 'year'))

## # A tibble: 120 x 3
##    Indigenous_Region_Names year  value
##    <chr>                   <chr> <dbl>
##  1 ACT                     2016   2.89
##  2 ACT                     2017   2.92
##  3 ACT                     2018   2.93
##  4 ACT                     2019   2.96
##  5 ACT                     2020   2.95
##  6 ACT                     2021   2.95
##  7 ACT                     2022   2.97
##  8 ACT                     2023   2.97
##  9 ACT                     2024   2.99
## 10 ACT                     2025   2.99
## #  with 110 more rows
…
3.) Use R to build a Motion Chart comparing the total Indigenous Australian population of each region to the percentage of Indigenous Australian children in each state/territory.

install.packages('googleVis',repos = "http://cran.us.r-project.org")

library(googleVis)

Motion chart compares total population of each region to percentage of children population in each states. First we calculate total population of each region by year.

(region_total_pop_16_to_31 <- df1 %>% group_by(Indigenous_Region_Names, TIME) %>% summarise(pop = sum(Value)))

## # A tibble: 592 x 3
## # Groups:   Indigenous_Region_Names [37]
##    Indigenous_Region_Names  TIME   pop
##    <chr>                   <dbl> <dbl>
##  1 ACT                      2016  7513
##  2 ACT                      2017  7730
##  3 ACT                      2018  7956
##  4 ACT                      2019  8189
##  5 ACT                      2020  8431
##  6 ACT                      2021  8680
##  7 ACT                      2022  8936
##  8 ACT                      2023  9201
##  9 ACT                      2024  9474
## 10 ACT                      2025  9757
## #  with 582 more rows

We have predicted population data from year 2006 to 2031 but since the data for total population of region is only available from year 2016, we will take predicted population data of states from year 2016 as well. The states population data is not in same format as the regional population data, therefore well use pivot longer to bring them into same format and calculate states total population for each year from 2016 to 2031.

(states_total_pop_16_to_31 <- df2 %>%
arrange(State) %>%
select(1,2,13:28) %>%
pivot_longer(-c(1,2), names_to = 'Year') %>%
group_by(State, Year) %>%
summarise(total = sum(value)))

## # A tibble: 128 x 3
## # Groups:   State [8]
##    State Year  total
##    <chr> <chr> <dbl>
##  1 ACT   2016   7513
##  2 ACT   2017   7728
##  3 ACT   2018   7949
##  4 ACT   2019   8178
##  5 ACT   2020   8414
##  6 ACT   2021   8653
##  7 ACT   2022   8897
##  8 ACT   2023   9147
##  9 ACT   2024   9402
## 10 ACT   2025   9662
## #  with 118 more rows

Now we calculate states childrens population data in the same way as above and also add an additional filter to include rows with Age<15.

(states_child_pop_16_to_31 <- df2 %>%
arrange(State) %>%
select(1,2,13:28) %>%
filter(Age %in% c('0','1','2','3','4','5','6','7','8','9','10','11','12','13','14')) %>%
pivot_longer(-c(1,2), names_to = 'year', values_to = 'pop') %>%
group_by(State, year) %>%
summarise(pop = sum(pop)))

## # A tibble: 128 x 3
## # Groups:   State [8]
##    State year    pop
##    <chr> <chr> <dbl>
##  1 ACT   2016   2389
##  2 ACT   2017   2414
##  3 ACT   2018   2443
##  4 ACT   2019   2482
##  5 ACT   2020   2528
##  6 ACT   2021   2570
##  7 ACT   2022   2624
##  8 ACT   2023   2677
##  9 ACT   2024   2718
## 10 ACT   2025   2742
## #  with 118 more rows

Now we add states children pop column to states total pop df in order to calculate children percent population from year 2016 to 2031.

states_total_pop_16_to_31['total child pop'] <- states_child_pop_16_to_31['pop']

Now we calculate percent children pop for each state for each year from 2016 to 2031

(states_child_percent_16_to_31 <- states_total_pop_16_to_31 %>%
group_by(State, Year) %>%
summarise('percent child' = 100*(`total child pop`)/`total`))

## # A tibble: 128 x 3
## # Groups:   State [8]
##    State Year  `percent child`
##    <chr> <chr>           <dbl>
##  1 ACT   2016             31.8
##  2 ACT   2017             31.2
##  3 ACT   2018             30.7
##  4 ACT   2019             30.3
##  5 ACT   2020             30.0
##  6 ACT   2021             29.7
##  7 ACT   2022             29.5
##  8 ACT   2023             29.3
##  9 ACT   2024             28.9
## 10 ACT   2025             28.4
## #  with 118 more rows
…
3.) For each row, calculate the percentage of Australian children that are fully immunised (this is the immunisation rate). What are the average, maximum and minimum immunisation rates? Calculate the same for the group that are Indigenous Australian children.

In order to find immunistaion rates, we create two new columns by modifying existing columns. For rows with missing values, we exclude those rows.

(immunisation_rates_df <- df3 %>%
mutate(immunisation_rate = 100*(`Number fully immunised`)/`Number of registered children`,
indig_immunisation_rates = 100*(`Number IndigAus fully immunised`)/`Number of registered IndigAus  children`,
na.exclude = T) %>%
subset(select = -c(na.exclude)))

## # A tibble: 465 x 14
##    State `PHN code` `PHN area name` `Reporting Year` `Age group`
##    <chr> <chr>      <chr>           <chr>            <chr>      
##  1 ACT   PHN801     Australian Cap 2015-16          2 years    
##  2 ACT   PHN801     Australian Cap 2014-15          2 years    
##  3 ACT   PHN801     Australian Cap 2016-17          2 years    
##  4 ACT   PHN801     Australian Cap 2012-13          1 year     
##  5 ACT   PHN801     Australian Cap 2013-14          1 year     
##  6 ACT   PHN801     Australian Cap 2012-13          2 years    
##  7 ACT   PHN801     Australian Cap 2015-16          5 years    
##  8 ACT   PHN801     Australian Cap 2012-13          5 years    
##  9 ACT   PHN801     Australian Cap 2014-15          1 year     
## 10 ACT   PHN801     Australian Cap 2015-16          1 year     
## #  with 455 more rows, and 9 more variables: `Number of registered
## #   children` <dbl>, `Number fully immunised` <dbl>, `Number not fully
## #   immunised` <dbl>, `Number of registered IndigAus children` <dbl>, `Number
## #   IndigAus fully immunised` <dbl>, `Number IndigAus not fully
## #   immunised` <dbl>, `Interpret with caution (#)` <chr>,
## #   immunisation_rate <dbl>, indig_immunisation_rates <dbl>
…
